{
  "Comment.nvim": { "branch": "master", "commit": "0236521ea582747b58869cb72f70ccfa967d2e89" },
  "LuaSnip": { "branch": "master", "commit": "c4d6298347f7707e9757351b2ee03d0c00da5c20" },
  "cmp-buffer": { "branch": "main", "commit": "3022dbc9166796b644a841a02de8dd1cc1d311fa" },
  "cmp-cmdline": { "branch": "main", "commit": "8ee981b4a91f536f52add291594e89fb6645e451" },
  "cmp-nvim-lsp": { "branch": "main", "commit": "44b16d11215dce86f253ce0c30949813c0a90765" },
  "cmp-path": { "branch": "main", "commit": "91ff86cd9c29299a64f968ebb45846c485725f23" },
  "cmp_luasnip": { "branch": "master", "commit": "18095520391186d634a0045dacaa346291096566" },
  "fidget.nvim": { "branch": "main", "commit": "0ba1e16d07627532b6cae915cc992ecac249fb97" },
  "gitsigns.nvim": { "branch": "main", "commit": "749267aaa863c30d721c9913699c5d94e0c07dd3" },
  "lazy.nvim": { "branch": "main", "commit": "dac844ed617dda4f9ec85eb88e9629ad2add5e05" },
  "lualine.nvim": { "branch": "master", "commit": "45e27ca739c7be6c49e5496d14fcf45a303c3a63" },
  "nvim-autopairs": { "branch": "master", "commit": "ae5b41ce880a6d850055e262d6dfebd362bb276e" },
  "nvim-cmp": { "branch": "main", "commit": "51f1e11a89ec701221877532ee1a23557d291dd5" },
  "nvim-lspconfig": { "branch": "master", "commit": "1cfb96490c3889a2c57d1ef5e1acc59e9b47c455" },
  "nvim-treesitter": { "branch": "master", "commit": "05fe2c38a3bd4f889ac13f1735685ab348d95346" },
  "plenary.nvim": { "branch": "master", "commit": "267282a9ce242bbb0c5dc31445b6d353bed978bb" },
  "rose-pine": { "branch": "main", "commit": "e29002cbee4854a9c8c4b148d8a52fae3176070f" },
  "telescope.nvim": { "branch": "master", "commit": "2d92125620417fbea82ec30303823e3cd69e90e8" },
  "vim-fugitive": { "branch": "master", "commit": "b3b838d690f315a503ec4af8c634bdff3b200aaf" }
}